^D:\GE2A16\REMOTE\GOODBYECOMMONSENCE\GOODBYECOMMONSENCE\X64\DEBUG\BASE.OBJ|D:\GE2A16\REMOTE\GOODBYECOMMONSENCE\GOODBYECOMMONSENCE\X64\DEBUG\DATA.OBJ|D:\GE2A16\REMOTE\GOODBYECOMMONSENCE\GOODBYECOMMONSENCE\X64\DEBUG\INPUT.OBJ|D:\GE2A16\REMOTE\GOODBYECOMMONSENCE\GOODBYECOMMONSENCE\X64\DEBUG\MAIN.OBJ|D:\GE2A16\REMOTE\GOODBYECOMMONSENCE\GOODBYECOMMONSENCE\X64\DEBUG\PLAYSCENE.OBJ|D:\GE2A16\REMOTE\GOODBYECOMMONSENCE\GOODBYECOMMONSENCE\X64\DEBUG\RESULTSCENE.OBJ|D:\GE2A16\REMOTE\GOODBYECOMMONSENCE\GOODBYECOMMONSENCE\X64\DEBUG\ROOTJOB.OBJ|D:\GE2A16\REMOTE\GOODBYECOMMONSENCE\GOODBYECOMMONSENCE\X64\DEBUG\SCENEMANAGER.OBJ|D:\GE2A16\REMOTE\GOODBYECOMMONSENCE\GOODBYECOMMONSENCE\X64\DEBUG\SELECTSCENE.OBJ|D:\GE2A16\REMOTE\GOODBYECOMMONSENCE\GOODBYECOMMONSENCE\X64\DEBUG\SPLASHSCENE.OBJ|D:\GE2A16\REMOTE\GOODBYECOMMONSENCE\GOODBYECOMMONSENCE\X64\DEBUG\TEXT.OBJ|D:\GE2A16\REMOTE\GOODBYECOMMONSENCE\GOODBYECOMMONSENCE\X64\DEBUG\TIMER.OBJ|D:\GE2A16\REMOTE\GOODBYECOMMONSENCE\GOODBYECOMMONSENCE\X64\DEBUG\TITLESCENE.OBJ|D:\GE2A16\REMOTE\GOODBYECOMMONSENCE\GOODBYECOMMONSENCE\X64\DEBUG\TUTORIALSCENE.OBJ|D:\GE2A16\REMOTE\GOODBYECOMMONSENCE\GOODBYECOMMONSENCE\X64\DEBUG\TUTORIALSCENE2.OBJ
D:\GE2A16\REMOTE\GOODBYECOMMONSENCE\X64\DEBUG\GOODBYECOMMONSENCE.EXE
D:\GE2A16\REMOTE\GOODBYECOMMONSENCE\X64\DEBUG\GOODBYECOMMONSENCE.ILK
D:\GE2A16\REMOTE\GOODBYECOMMONSENCE\X64\DEBUG\GOODBYECOMMONSENCE.PDB
^C:\REMOTE\GOODBYECOMMONSENCE\GOODBYECOMMONSENCE\X64\DEBUG\BASE.OBJ|C:\REMOTE\GOODBYECOMMONSENCE\GOODBYECOMMONSENCE\X64\DEBUG\DATA.OBJ|C:\REMOTE\GOODBYECOMMONSENCE\GOODBYECOMMONSENCE\X64\DEBUG\INPUT.OBJ|C:\REMOTE\GOODBYECOMMONSENCE\GOODBYECOMMONSENCE\X64\DEBUG\MAIN.OBJ|C:\REMOTE\GOODBYECOMMONSENCE\GOODBYECOMMONSENCE\X64\DEBUG\PLAYSCENE.OBJ|C:\REMOTE\GOODBYECOMMONSENCE\GOODBYECOMMONSENCE\X64\DEBUG\RESULTSCENE.OBJ|C:\REMOTE\GOODBYECOMMONSENCE\GOODBYECOMMONSENCE\X64\DEBUG\ROOTJOB.OBJ|C:\REMOTE\GOODBYECOMMONSENCE\GOODBYECOMMONSENCE\X64\DEBUG\SCENEMANAGER.OBJ|C:\REMOTE\GOODBYECOMMONSENCE\GOODBYECOMMONSENCE\X64\DEBUG\SELECTSCENE.OBJ|C:\REMOTE\GOODBYECOMMONSENCE\GOODBYECOMMONSENCE\X64\DEBUG\SPLASHSCENE.OBJ|C:\REMOTE\GOODBYECOMMONSENCE\GOODBYECOMMONSENCE\X64\DEBUG\TEXT.OBJ|C:\REMOTE\GOODBYECOMMONSENCE\GOODBYECOMMONSENCE\X64\DEBUG\TIMER.OBJ|C:\REMOTE\GOODBYECOMMONSENCE\GOODBYECOMMONSENCE\X64\DEBUG\TITLESCENE.OBJ|C:\REMOTE\GOODBYECOMMONSENCE\GOODBYECOMMONSENCE\X64\DEBUG\TUTORIALSCENE.OBJ|C:\REMOTE\GOODBYECOMMONSENCE\GOODBYECOMMONSENCE\X64\DEBUG\TUTORIALSCENE2.OBJ
C:\REMOTE\GOODBYECOMMONSENCE\X64\DEBUG\GOODBYECOMMONSENCE.EXE
C:\REMOTE\GOODBYECOMMONSENCE\X64\DEBUG\GOODBYECOMMONSENCE.ILK
C:\REMOTE\GOODBYECOMMONSENCE\X64\DEBUG\GOODBYECOMMONSENCE.PDB
