^D:\GE2A16\ぬりえ\REMOTE_\GOODBYECOMMONSENCE\GOODBYECOMMONSENCE\X64\RELEASE\BASE.OBJ|D:\GE2A16\ぬりえ\REMOTE_\GOODBYECOMMONSENCE\GOODBYECOMMONSENCE\X64\RELEASE\INPUT.OBJ|D:\GE2A16\ぬりえ\REMOTE_\GOODBYECOMMONSENCE\GOODBYECOMMONSENCE\X64\RELEASE\MAIN.OBJ|D:\GE2A16\ぬりえ\REMOTE_\GOODBYECOMMONSENCE\GOODBYECOMMONSENCE\X64\RELEASE\PLAYSCENE.OBJ|D:\GE2A16\ぬりえ\REMOTE_\GOODBYECOMMONSENCE\GOODBYECOMMONSENCE\X64\RELEASE\RESULTSCENE.OBJ|D:\GE2A16\ぬりえ\REMOTE_\GOODBYECOMMONSENCE\GOODBYECOMMONSENCE\X64\RELEASE\ROOTJOB.OBJ|D:\GE2A16\ぬりえ\REMOTE_\GOODBYECOMMONSENCE\GOODBYECOMMONSENCE\X64\RELEASE\SCENEMANAGER.OBJ|D:\GE2A16\ぬりえ\REMOTE_\GOODBYECOMMONSENCE\GOODBYECOMMONSENCE\X64\RELEASE\SELECTSCENE.OBJ|D:\GE2A16\ぬりえ\REMOTE_\GOODBYECOMMONSENCE\GOODBYECOMMONSENCE\X64\RELEASE\SPLASHSCENE.OBJ|D:\GE2A16\ぬりえ\REMOTE_\GOODBYECOMMONSENCE\GOODBYECOMMONSENCE\X64\RELEASE\TEXT.OBJ|D:\GE2A16\ぬりえ\REMOTE_\GOODBYECOMMONSENCE\GOODBYECOMMONSENCE\X64\RELEASE\TIMER.OBJ|D:\GE2A16\ぬりえ\REMOTE_\GOODBYECOMMONSENCE\GOODBYECOMMONSENCE\X64\RELEASE\TITLESCENE.OBJ|D:\GE2A16\ぬりえ\REMOTE_\GOODBYECOMMONSENCE\GOODBYECOMMONSENCE\X64\RELEASE\TUTORIALSCENE.OBJ
/OUT:"D:\GE2A16\ぬりえ\REMOTE_\GOODBYECOMMONSENCE\X64\RELEASE\GOODBYECOMMONSENCE.EXE" /NOLOGO OPENCV_WORLD440.LIB KERNEL32.LIB USER32.LIB GDI32.LIB WINSPOOL.LIB COMDLG32.LIB ADVAPI32.LIB SHELL32.LIB OLE32.LIB OLEAUT32.LIB UUID.LIB ODBC32.LIB ODBCCP32.LIB /MANIFEST /MANIFESTUAC:"level='asInvoker' uiAccess='false'" /manifest:embed /DEBUG:FULL /PDB:"D:\GE2A16\ぬりえ\REMOTE_\GOODBYECOMMONSENCE\X64\RELEASE\GOODBYECOMMONSENCE.PDB" /SUBSYSTEM:CONSOLE /OPT:REF /OPT:ICF /LTCG:incremental /TLBID:1 /DYNAMICBASE /NXCOMPAT /IMPLIB:"D:\GE2A16\ぬりえ\REMOTE_\GOODBYECOMMONSENCE\X64\RELEASE\GOODBYECOMMONSENCE.LIB" /MACHINE:X64 X64\RELEASE\BASE.OBJX64\RELEASE\INPUT.OBJX64\RELEASE\ROOTJOB.OBJX64\RELEASE\SCENEMANAGER.OBJX64\RELEASE\TEXT.OBJX64\RELEASE\TIMER.OBJX64\RELEASE\MAIN.OBJX64\RELEASE\PLAYSCENE.OBJX64\RELEASE\RESULTSCENE.OBJX64\RELEASE\SELECTSCENE.OBJX64\RELEASE\SPLASHSCENE.OBJX64\RELEASE\TITLESCENE.OBJX64\RELEASE\TUTORIALSCENE.OBJ
^D:\GE2A12\SORCE\REMOTE\GOODBYECOMMONSENCE\GOODBYECOMMONSENCE\X64\RELEASE\BASE.OBJ|D:\GE2A12\SORCE\REMOTE\GOODBYECOMMONSENCE\GOODBYECOMMONSENCE\X64\RELEASE\INPUT.OBJ|D:\GE2A12\SORCE\REMOTE\GOODBYECOMMONSENCE\GOODBYECOMMONSENCE\X64\RELEASE\MAIN.OBJ|D:\GE2A12\SORCE\REMOTE\GOODBYECOMMONSENCE\GOODBYECOMMONSENCE\X64\RELEASE\PLAYSCENE.OBJ|D:\GE2A12\SORCE\REMOTE\GOODBYECOMMONSENCE\GOODBYECOMMONSENCE\X64\RELEASE\RESULTSCENE.OBJ|D:\GE2A12\SORCE\REMOTE\GOODBYECOMMONSENCE\GOODBYECOMMONSENCE\X64\RELEASE\ROOTJOB.OBJ|D:\GE2A12\SORCE\REMOTE\GOODBYECOMMONSENCE\GOODBYECOMMONSENCE\X64\RELEASE\SCENEMANAGER.OBJ|D:\GE2A12\SORCE\REMOTE\GOODBYECOMMONSENCE\GOODBYECOMMONSENCE\X64\RELEASE\SELECTSCENE.OBJ|D:\GE2A12\SORCE\REMOTE\GOODBYECOMMONSENCE\GOODBYECOMMONSENCE\X64\RELEASE\SPLASHSCENE.OBJ|D:\GE2A12\SORCE\REMOTE\GOODBYECOMMONSENCE\GOODBYECOMMONSENCE\X64\RELEASE\TEXT.OBJ|D:\GE2A12\SORCE\REMOTE\GOODBYECOMMONSENCE\GOODBYECOMMONSENCE\X64\RELEASE\TIMER.OBJ|D:\GE2A12\SORCE\REMOTE\GOODBYECOMMONSENCE\GOODBYECOMMONSENCE\X64\RELEASE\TITLESCENE.OBJ|D:\GE2A12\SORCE\REMOTE\GOODBYECOMMONSENCE\GOODBYECOMMONSENCE\X64\RELEASE\TUTORIALSCENE.OBJ
/OUT:"D:\GE2A12\SORCE\REMOTE\GOODBYECOMMONSENCE\X64\RELEASE\GOODBYECOMMONSENCE.EXE" /NOLOGO OPENCV_WORLD440.LIB KERNEL32.LIB USER32.LIB GDI32.LIB WINSPOOL.LIB COMDLG32.LIB ADVAPI32.LIB SHELL32.LIB OLE32.LIB OLEAUT32.LIB UUID.LIB ODBC32.LIB ODBCCP32.LIB /MANIFEST /MANIFESTUAC:"level='asInvoker' uiAccess='false'" /manifest:embed /DEBUG:FULL /PDB:"D:\GE2A12\SORCE\REMOTE\GOODBYECOMMONSENCE\X64\RELEASE\GOODBYECOMMONSENCE.PDB" /SUBSYSTEM:CONSOLE /OPT:REF /OPT:ICF /LTCG:incremental /TLBID:1 /DYNAMICBASE /NXCOMPAT /IMPLIB:"D:\GE2A12\SORCE\REMOTE\GOODBYECOMMONSENCE\X64\RELEASE\GOODBYECOMMONSENCE.LIB" /MACHINE:X64 X64\RELEASE\BASE.OBJX64\RELEASE\INPUT.OBJX64\RELEASE\ROOTJOB.OBJX64\RELEASE\SCENEMANAGER.OBJX64\RELEASE\TEXT.OBJX64\RELEASE\TIMER.OBJX64\RELEASE\MAIN.OBJX64\RELEASE\PLAYSCENE.OBJX64\RELEASE\RESULTSCENE.OBJX64\RELEASE\SELECTSCENE.OBJX64\RELEASE\SPLASHSCENE.OBJX64\RELEASE\TITLESCENE.OBJX64\RELEASE\TUTORIALSCENE.OBJ
^D:\GE2A12\REMOTE\GOODBYECOMMONSENCE\GOODBYECOMMONSENCE\X64\RELEASE\BASE.OBJ|D:\GE2A12\REMOTE\GOODBYECOMMONSENCE\GOODBYECOMMONSENCE\X64\RELEASE\DATA.OBJ|D:\GE2A12\REMOTE\GOODBYECOMMONSENCE\GOODBYECOMMONSENCE\X64\RELEASE\INPUT.OBJ|D:\GE2A12\REMOTE\GOODBYECOMMONSENCE\GOODBYECOMMONSENCE\X64\RELEASE\MAIN.OBJ|D:\GE2A12\REMOTE\GOODBYECOMMONSENCE\GOODBYECOMMONSENCE\X64\RELEASE\PLAYSCENE.OBJ|D:\GE2A12\REMOTE\GOODBYECOMMONSENCE\GOODBYECOMMONSENCE\X64\RELEASE\RESULTSCENE.OBJ|D:\GE2A12\REMOTE\GOODBYECOMMONSENCE\GOODBYECOMMONSENCE\X64\RELEASE\ROOTJOB.OBJ|D:\GE2A12\REMOTE\GOODBYECOMMONSENCE\GOODBYECOMMONSENCE\X64\RELEASE\SCENEMANAGER.OBJ|D:\GE2A12\REMOTE\GOODBYECOMMONSENCE\GOODBYECOMMONSENCE\X64\RELEASE\SELECTSCENE.OBJ|D:\GE2A12\REMOTE\GOODBYECOMMONSENCE\GOODBYECOMMONSENCE\X64\RELEASE\SPLASHSCENE.OBJ|D:\GE2A12\REMOTE\GOODBYECOMMONSENCE\GOODBYECOMMONSENCE\X64\RELEASE\TEXT.OBJ|D:\GE2A12\REMOTE\GOODBYECOMMONSENCE\GOODBYECOMMONSENCE\X64\RELEASE\TIMER.OBJ|D:\GE2A12\REMOTE\GOODBYECOMMONSENCE\GOODBYECOMMONSENCE\X64\RELEASE\TITLESCENE.OBJ|D:\GE2A12\REMOTE\GOODBYECOMMONSENCE\GOODBYECOMMONSENCE\X64\RELEASE\TUTORIALSCENE.OBJ
/OUT:"D:\GE2A12\REMOTE\GOODBYECOMMONSENCE\X64\RELEASE\GOODBYECOMMONSENCE.EXE" /NOLOGO OPENCV_WORLD440.LIB KERNEL32.LIB USER32.LIB GDI32.LIB WINSPOOL.LIB COMDLG32.LIB ADVAPI32.LIB SHELL32.LIB OLE32.LIB OLEAUT32.LIB UUID.LIB ODBC32.LIB ODBCCP32.LIB /MANIFEST /MANIFESTUAC:"level='asInvoker' uiAccess='false'" /manifest:embed /DEBUG:FULL /PDB:"D:\GE2A12\REMOTE\GOODBYECOMMONSENCE\X64\RELEASE\GOODBYECOMMONSENCE.PDB" /SUBSYSTEM:CONSOLE /OPT:REF /OPT:ICF /LTCG:incremental /TLBID:1 /DYNAMICBASE /NXCOMPAT /IMPLIB:"D:\GE2A12\REMOTE\GOODBYECOMMONSENCE\X64\RELEASE\GOODBYECOMMONSENCE.LIB" /MACHINE:X64 X64\RELEASE\BASE.OBJX64\RELEASE\DATA.OBJX64\RELEASE\INPUT.OBJX64\RELEASE\ROOTJOB.OBJX64\RELEASE\SCENEMANAGER.OBJX64\RELEASE\TEXT.OBJX64\RELEASE\TIMER.OBJX64\RELEASE\MAIN.OBJX64\RELEASE\PLAYSCENE.OBJX64\RELEASE\RESULTSCENE.OBJX64\RELEASE\SELECTSCENE.OBJX64\RELEASE\SPLASHSCENE.OBJX64\RELEASE\TITLESCENE.OBJX64\RELEASE\TUTORIALSCENE.OBJ
^D:\GE2A12\SORCE\REMOTE\GOODBYECOMMONSENCE\GOODBYECOMMONSENCE\X64\RELEASE\BASE.OBJ|D:\GE2A12\SORCE\REMOTE\GOODBYECOMMONSENCE\GOODBYECOMMONSENCE\X64\RELEASE\DATA.OBJ|D:\GE2A12\SORCE\REMOTE\GOODBYECOMMONSENCE\GOODBYECOMMONSENCE\X64\RELEASE\INPUT.OBJ|D:\GE2A12\SORCE\REMOTE\GOODBYECOMMONSENCE\GOODBYECOMMONSENCE\X64\RELEASE\MAIN.OBJ|D:\GE2A12\SORCE\REMOTE\GOODBYECOMMONSENCE\GOODBYECOMMONSENCE\X64\RELEASE\PLAYSCENE.OBJ|D:\GE2A12\SORCE\REMOTE\GOODBYECOMMONSENCE\GOODBYECOMMONSENCE\X64\RELEASE\RESULTSCENE.OBJ|D:\GE2A12\SORCE\REMOTE\GOODBYECOMMONSENCE\GOODBYECOMMONSENCE\X64\RELEASE\ROOTJOB.OBJ|D:\GE2A12\SORCE\REMOTE\GOODBYECOMMONSENCE\GOODBYECOMMONSENCE\X64\RELEASE\SCENEMANAGER.OBJ|D:\GE2A12\SORCE\REMOTE\GOODBYECOMMONSENCE\GOODBYECOMMONSENCE\X64\RELEASE\SELECTSCENE.OBJ|D:\GE2A12\SORCE\REMOTE\GOODBYECOMMONSENCE\GOODBYECOMMONSENCE\X64\RELEASE\SPLASHSCENE.OBJ|D:\GE2A12\SORCE\REMOTE\GOODBYECOMMONSENCE\GOODBYECOMMONSENCE\X64\RELEASE\TEXT.OBJ|D:\GE2A12\SORCE\REMOTE\GOODBYECOMMONSENCE\GOODBYECOMMONSENCE\X64\RELEASE\TIMER.OBJ|D:\GE2A12\SORCE\REMOTE\GOODBYECOMMONSENCE\GOODBYECOMMONSENCE\X64\RELEASE\TITLESCENE.OBJ|D:\GE2A12\SORCE\REMOTE\GOODBYECOMMONSENCE\GOODBYECOMMONSENCE\X64\RELEASE\TUTORIALSCENE.OBJ
/OUT:"D:\GE2A12\SORCE\REMOTE\GOODBYECOMMONSENCE\X64\RELEASE\GOODBYECOMMONSENCE.EXE" /NOLOGO OPENCV_WORLD440.LIB KERNEL32.LIB USER32.LIB GDI32.LIB WINSPOOL.LIB COMDLG32.LIB ADVAPI32.LIB SHELL32.LIB OLE32.LIB OLEAUT32.LIB UUID.LIB ODBC32.LIB ODBCCP32.LIB /MANIFEST /MANIFESTUAC:"level='asInvoker' uiAccess='false'" /manifest:embed /DEBUG:FULL /PDB:"D:\GE2A12\SORCE\REMOTE\GOODBYECOMMONSENCE\X64\RELEASE\GOODBYECOMMONSENCE.PDB" /SUBSYSTEM:CONSOLE /OPT:REF /OPT:ICF /LTCG:incremental /TLBID:1 /DYNAMICBASE /NXCOMPAT /IMPLIB:"D:\GE2A12\SORCE\REMOTE\GOODBYECOMMONSENCE\X64\RELEASE\GOODBYECOMMONSENCE.LIB" /MACHINE:X64 X64\RELEASE\BASE.OBJX64\RELEASE\DATA.OBJX64\RELEASE\INPUT.OBJX64\RELEASE\ROOTJOB.OBJX64\RELEASE\SCENEMANAGER.OBJX64\RELEASE\TEXT.OBJX64\RELEASE\TIMER.OBJX64\RELEASE\MAIN.OBJX64\RELEASE\PLAYSCENE.OBJX64\RELEASE\RESULTSCENE.OBJX64\RELEASE\SELECTSCENE.OBJX64\RELEASE\SPLASHSCENE.OBJX64\RELEASE\TITLESCENE.OBJX64\RELEASE\TUTORIALSCENE.OBJ
^D:\GE2A16\ぬりえ\REMOTE_\GOODBYECOMMONSENCE\GOODBYECOMMONSENCE\X64\RELEASE\BASE.OBJ|D:\GE2A16\ぬりえ\REMOTE_\GOODBYECOMMONSENCE\GOODBYECOMMONSENCE\X64\RELEASE\DATA.OBJ|D:\GE2A16\ぬりえ\REMOTE_\GOODBYECOMMONSENCE\GOODBYECOMMONSENCE\X64\RELEASE\INPUT.OBJ|D:\GE2A16\ぬりえ\REMOTE_\GOODBYECOMMONSENCE\GOODBYECOMMONSENCE\X64\RELEASE\MAIN.OBJ|D:\GE2A16\ぬりえ\REMOTE_\GOODBYECOMMONSENCE\GOODBYECOMMONSENCE\X64\RELEASE\PLAYSCENE.OBJ|D:\GE2A16\ぬりえ\REMOTE_\GOODBYECOMMONSENCE\GOODBYECOMMONSENCE\X64\RELEASE\RESULTSCENE.OBJ|D:\GE2A16\ぬりえ\REMOTE_\GOODBYECOMMONSENCE\GOODBYECOMMONSENCE\X64\RELEASE\ROOTJOB.OBJ|D:\GE2A16\ぬりえ\REMOTE_\GOODBYECOMMONSENCE\GOODBYECOMMONSENCE\X64\RELEASE\SCENEMANAGER.OBJ|D:\GE2A16\ぬりえ\REMOTE_\GOODBYECOMMONSENCE\GOODBYECOMMONSENCE\X64\RELEASE\SELECTSCENE.OBJ|D:\GE2A16\ぬりえ\REMOTE_\GOODBYECOMMONSENCE\GOODBYECOMMONSENCE\X64\RELEASE\SPLASHSCENE.OBJ|D:\GE2A16\ぬりえ\REMOTE_\GOODBYECOMMONSENCE\GOODBYECOMMONSENCE\X64\RELEASE\TEXT.OBJ|D:\GE2A16\ぬりえ\REMOTE_\GOODBYECOMMONSENCE\GOODBYECOMMONSENCE\X64\RELEASE\TIMER.OBJ|D:\GE2A16\ぬりえ\REMOTE_\GOODBYECOMMONSENCE\GOODBYECOMMONSENCE\X64\RELEASE\TITLESCENE.OBJ|D:\GE2A16\ぬりえ\REMOTE_\GOODBYECOMMONSENCE\GOODBYECOMMONSENCE\X64\RELEASE\TUTORIALSCENE.OBJ
/OUT:"D:\GE2A16\ぬりえ\REMOTE_\GOODBYECOMMONSENCE\X64\RELEASE\GOODBYECOMMONSENCE.EXE" /NOLOGO OPENCV_WORLD440.LIB KERNEL32.LIB USER32.LIB GDI32.LIB WINSPOOL.LIB COMDLG32.LIB ADVAPI32.LIB SHELL32.LIB OLE32.LIB OLEAUT32.LIB UUID.LIB ODBC32.LIB ODBCCP32.LIB /MANIFEST /MANIFESTUAC:"level='asInvoker' uiAccess='false'" /manifest:embed /DEBUG:FULL /PDB:"D:\GE2A16\ぬりえ\REMOTE_\GOODBYECOMMONSENCE\X64\RELEASE\GOODBYECOMMONSENCE.PDB" /SUBSYSTEM:CONSOLE /OPT:REF /OPT:ICF /LTCG:incremental /TLBID:1 /DYNAMICBASE /NXCOMPAT /IMPLIB:"D:\GE2A16\ぬりえ\REMOTE_\GOODBYECOMMONSENCE\X64\RELEASE\GOODBYECOMMONSENCE.LIB" /MACHINE:X64 X64\RELEASE\BASE.OBJX64\RELEASE\DATA.OBJX64\RELEASE\INPUT.OBJX64\RELEASE\ROOTJOB.OBJX64\RELEASE\SCENEMANAGER.OBJX64\RELEASE\TEXT.OBJX64\RELEASE\TIMER.OBJX64\RELEASE\MAIN.OBJX64\RELEASE\PLAYSCENE.OBJX64\RELEASE\RESULTSCENE.OBJX64\RELEASE\SELECTSCENE.OBJX64\RELEASE\SPLASHSCENE.OBJX64\RELEASE\TITLESCENE.OBJX64\RELEASE\TUTORIALSCENE.OBJ
^D:\GE2A16\REMOTE\GOODBYECOMMONSENCE\GOODBYECOMMONSENCE\X64\RELEASE\BASE.OBJ|D:\GE2A16\REMOTE\GOODBYECOMMONSENCE\GOODBYECOMMONSENCE\X64\RELEASE\DATA.OBJ|D:\GE2A16\REMOTE\GOODBYECOMMONSENCE\GOODBYECOMMONSENCE\X64\RELEASE\INPUT.OBJ|D:\GE2A16\REMOTE\GOODBYECOMMONSENCE\GOODBYECOMMONSENCE\X64\RELEASE\MAIN.OBJ|D:\GE2A16\REMOTE\GOODBYECOMMONSENCE\GOODBYECOMMONSENCE\X64\RELEASE\PLAYSCENE.OBJ|D:\GE2A16\REMOTE\GOODBYECOMMONSENCE\GOODBYECOMMONSENCE\X64\RELEASE\RESULTSCENE.OBJ|D:\GE2A16\REMOTE\GOODBYECOMMONSENCE\GOODBYECOMMONSENCE\X64\RELEASE\ROOTJOB.OBJ|D:\GE2A16\REMOTE\GOODBYECOMMONSENCE\GOODBYECOMMONSENCE\X64\RELEASE\SCENEMANAGER.OBJ|D:\GE2A16\REMOTE\GOODBYECOMMONSENCE\GOODBYECOMMONSENCE\X64\RELEASE\SELECTSCENE.OBJ|D:\GE2A16\REMOTE\GOODBYECOMMONSENCE\GOODBYECOMMONSENCE\X64\RELEASE\SPLASHSCENE.OBJ|D:\GE2A16\REMOTE\GOODBYECOMMONSENCE\GOODBYECOMMONSENCE\X64\RELEASE\TEXT.OBJ|D:\GE2A16\REMOTE\GOODBYECOMMONSENCE\GOODBYECOMMONSENCE\X64\RELEASE\TIMER.OBJ|D:\GE2A16\REMOTE\GOODBYECOMMONSENCE\GOODBYECOMMONSENCE\X64\RELEASE\TITLESCENE.OBJ|D:\GE2A16\REMOTE\GOODBYECOMMONSENCE\GOODBYECOMMONSENCE\X64\RELEASE\TUTORIALSCENE.OBJ|D:\GE2A16\REMOTE\GOODBYECOMMONSENCE\GOODBYECOMMONSENCE\X64\RELEASE\TUTORIALSCENE2.OBJ
/OUT:"D:\GE2A16\REMOTE\GOODBYECOMMONSENCE\X64\RELEASE\GOODBYECOMMONSENCE.EXE" /NOLOGO OPENCV_WORLD440.LIB KERNEL32.LIB USER32.LIB GDI32.LIB WINSPOOL.LIB COMDLG32.LIB ADVAPI32.LIB SHELL32.LIB OLE32.LIB OLEAUT32.LIB UUID.LIB ODBC32.LIB ODBCCP32.LIB /MANIFEST /MANIFESTUAC:"level='asInvoker' uiAccess='false'" /manifest:embed /DEBUG:FULL /PDB:"D:\GE2A16\REMOTE\GOODBYECOMMONSENCE\X64\RELEASE\GOODBYECOMMONSENCE.PDB" /SUBSYSTEM:CONSOLE /OPT:REF /OPT:ICF /LTCG:incremental /TLBID:1 /DYNAMICBASE /NXCOMPAT /IMPLIB:"D:\GE2A16\REMOTE\GOODBYECOMMONSENCE\X64\RELEASE\GOODBYECOMMONSENCE.LIB" /MACHINE:X64 X64\RELEASE\BASE.OBJX64\RELEASE\DATA.OBJX64\RELEASE\INPUT.OBJX64\RELEASE\ROOTJOB.OBJX64\RELEASE\SCENEMANAGER.OBJX64\RELEASE\TEXT.OBJX64\RELEASE\TIMER.OBJX64\RELEASE\MAIN.OBJX64\RELEASE\PLAYSCENE.OBJX64\RELEASE\RESULTSCENE.OBJX64\RELEASE\SELECTSCENE.OBJX64\RELEASE\SPLASHSCENE.OBJX64\RELEASE\TITLESCENE.OBJX64\RELEASE\TUTORIALSCENE.OBJX64\RELEASE\TUTORIALSCENE2.OBJ
^C:\REMOTE\GOODBYECOMMONSENCE\GOODBYECOMMONSENCE\X64\RELEASE\BASE.OBJ|C:\REMOTE\GOODBYECOMMONSENCE\GOODBYECOMMONSENCE\X64\RELEASE\DATA.OBJ|C:\REMOTE\GOODBYECOMMONSENCE\GOODBYECOMMONSENCE\X64\RELEASE\INPUT.OBJ|C:\REMOTE\GOODBYECOMMONSENCE\GOODBYECOMMONSENCE\X64\RELEASE\MAIN.OBJ|C:\REMOTE\GOODBYECOMMONSENCE\GOODBYECOMMONSENCE\X64\RELEASE\PLAYSCENE.OBJ|C:\REMOTE\GOODBYECOMMONSENCE\GOODBYECOMMONSENCE\X64\RELEASE\RESULTSCENE.OBJ|C:\REMOTE\GOODBYECOMMONSENCE\GOODBYECOMMONSENCE\X64\RELEASE\ROOTJOB.OBJ|C:\REMOTE\GOODBYECOMMONSENCE\GOODBYECOMMONSENCE\X64\RELEASE\SCENEMANAGER.OBJ|C:\REMOTE\GOODBYECOMMONSENCE\GOODBYECOMMONSENCE\X64\RELEASE\SELECTSCENE.OBJ|C:\REMOTE\GOODBYECOMMONSENCE\GOODBYECOMMONSENCE\X64\RELEASE\SPLASHSCENE.OBJ|C:\REMOTE\GOODBYECOMMONSENCE\GOODBYECOMMONSENCE\X64\RELEASE\TEXT.OBJ|C:\REMOTE\GOODBYECOMMONSENCE\GOODBYECOMMONSENCE\X64\RELEASE\TIMER.OBJ|C:\REMOTE\GOODBYECOMMONSENCE\GOODBYECOMMONSENCE\X64\RELEASE\TITLESCENE.OBJ|C:\REMOTE\GOODBYECOMMONSENCE\GOODBYECOMMONSENCE\X64\RELEASE\TUTORIALSCENE.OBJ|C:\REMOTE\GOODBYECOMMONSENCE\GOODBYECOMMONSENCE\X64\RELEASE\TUTORIALSCENE2.OBJ
/OUT:"C:\REMOTE\GOODBYECOMMONSENCE\X64\RELEASE\GOODBYECOMMONSENCE.EXE" /NOLOGO OPENCV_WORLD440.LIB KERNEL32.LIB USER32.LIB GDI32.LIB WINSPOOL.LIB COMDLG32.LIB ADVAPI32.LIB SHELL32.LIB OLE32.LIB OLEAUT32.LIB UUID.LIB ODBC32.LIB ODBCCP32.LIB /MANIFEST /MANIFESTUAC:"level='asInvoker' uiAccess='false'" /manifest:embed /DEBUG:FULL /PDB:"C:\REMOTE\GOODBYECOMMONSENCE\X64\RELEASE\GOODBYECOMMONSENCE.PDB" /SUBSYSTEM:CONSOLE /OPT:REF /OPT:ICF /LTCG:incremental /TLBID:1 /DYNAMICBASE /NXCOMPAT /IMPLIB:"C:\REMOTE\GOODBYECOMMONSENCE\X64\RELEASE\GOODBYECOMMONSENCE.LIB" /MACHINE:X64 X64\RELEASE\BASE.OBJX64\RELEASE\DATA.OBJX64\RELEASE\INPUT.OBJX64\RELEASE\ROOTJOB.OBJX64\RELEASE\SCENEMANAGER.OBJX64\RELEASE\TEXT.OBJX64\RELEASE\TIMER.OBJX64\RELEASE\MAIN.OBJX64\RELEASE\PLAYSCENE.OBJX64\RELEASE\RESULTSCENE.OBJX64\RELEASE\SELECTSCENE.OBJX64\RELEASE\SPLASHSCENE.OBJX64\RELEASE\TITLESCENE.OBJX64\RELEASE\TUTORIALSCENE.OBJX64\RELEASE\TUTORIALSCENE2.OBJ
^D:\GE2A16\ぬりえ\REMOTE\GOODBYECOMMONSENCE\GOODBYECOMMONSENCE\X64\RELEASE\BASE.OBJ|D:\GE2A16\ぬりえ\REMOTE\GOODBYECOMMONSENCE\GOODBYECOMMONSENCE\X64\RELEASE\DATA.OBJ|D:\GE2A16\ぬりえ\REMOTE\GOODBYECOMMONSENCE\GOODBYECOMMONSENCE\X64\RELEASE\INPUT.OBJ|D:\GE2A16\ぬりえ\REMOTE\GOODBYECOMMONSENCE\GOODBYECOMMONSENCE\X64\RELEASE\MAIN.OBJ|D:\GE2A16\ぬりえ\REMOTE\GOODBYECOMMONSENCE\GOODBYECOMMONSENCE\X64\RELEASE\PLAYSCENE.OBJ|D:\GE2A16\ぬりえ\REMOTE\GOODBYECOMMONSENCE\GOODBYECOMMONSENCE\X64\RELEASE\RESULTSCENE.OBJ|D:\GE2A16\ぬりえ\REMOTE\GOODBYECOMMONSENCE\GOODBYECOMMONSENCE\X64\RELEASE\ROOTJOB.OBJ|D:\GE2A16\ぬりえ\REMOTE\GOODBYECOMMONSENCE\GOODBYECOMMONSENCE\X64\RELEASE\SCENEMANAGER.OBJ|D:\GE2A16\ぬりえ\REMOTE\GOODBYECOMMONSENCE\GOODBYECOMMONSENCE\X64\RELEASE\SELECTSCENE.OBJ|D:\GE2A16\ぬりえ\REMOTE\GOODBYECOMMONSENCE\GOODBYECOMMONSENCE\X64\RELEASE\SPLASHSCENE.OBJ|D:\GE2A16\ぬりえ\REMOTE\GOODBYECOMMONSENCE\GOODBYECOMMONSENCE\X64\RELEASE\TEXT.OBJ|D:\GE2A16\ぬりえ\REMOTE\GOODBYECOMMONSENCE\GOODBYECOMMONSENCE\X64\RELEASE\TIMER.OBJ|D:\GE2A16\ぬりえ\REMOTE\GOODBYECOMMONSENCE\GOODBYECOMMONSENCE\X64\RELEASE\TITLESCENE.OBJ|D:\GE2A16\ぬりえ\REMOTE\GOODBYECOMMONSENCE\GOODBYECOMMONSENCE\X64\RELEASE\TUTORIALSCENE.OBJ|D:\GE2A16\ぬりえ\REMOTE\GOODBYECOMMONSENCE\GOODBYECOMMONSENCE\X64\RELEASE\TUTORIALSCENE2.OBJ
/OUT:"D:\GE2A16\ぬりえ\REMOTE\GOODBYECOMMONSENCE\X64\RELEASE\GOODBYECOMMONSENCE.EXE" /NOLOGO OPENCV_WORLD440.LIB KERNEL32.LIB USER32.LIB GDI32.LIB WINSPOOL.LIB COMDLG32.LIB ADVAPI32.LIB SHELL32.LIB OLE32.LIB OLEAUT32.LIB UUID.LIB ODBC32.LIB ODBCCP32.LIB /MANIFEST /MANIFESTUAC:"level='asInvoker' uiAccess='false'" /manifest:embed /DEBUG:FULL /PDB:"D:\GE2A16\ぬりえ\REMOTE\GOODBYECOMMONSENCE\X64\RELEASE\GOODBYECOMMONSENCE.PDB" /SUBSYSTEM:CONSOLE /OPT:REF /OPT:ICF /LTCG:incremental /TLBID:1 /DYNAMICBASE /NXCOMPAT /IMPLIB:"D:\GE2A16\ぬりえ\REMOTE\GOODBYECOMMONSENCE\X64\RELEASE\GOODBYECOMMONSENCE.LIB" /MACHINE:X64 X64\RELEASE\BASE.OBJX64\RELEASE\DATA.OBJX64\RELEASE\INPUT.OBJX64\RELEASE\ROOTJOB.OBJX64\RELEASE\SCENEMANAGER.OBJX64\RELEASE\TEXT.OBJX64\RELEASE\TIMER.OBJX64\RELEASE\MAIN.OBJX64\RELEASE\PLAYSCENE.OBJX64\RELEASE\RESULTSCENE.OBJX64\RELEASE\SELECTSCENE.OBJX64\RELEASE\SPLASHSCENE.OBJX64\RELEASE\TITLESCENE.OBJX64\RELEASE\TUTORIALSCENE.OBJX64\RELEASE\TUTORIALSCENE2.OBJ
